Text mining avec TidyText sous R
…
Tokenisation

Transformation des documents en une structure tidy, en recensant les mots par document. Linformation sur lordre des mots est perdue. On note en revanche que la casse a t change, la ponctuation a t supprime.

#traiter le texte brut
res_A <- DPRIM %>%
  unnest_tokens(output=word,input=commentaires)

#
print(res_A)

## # A tibble: 467,429 x 2
##     line word 
##    <int> <chr>
##  1     1 i    
##  2     1 don't
##  3     1 have 
##  4     1 much 
##  5     1 to   
##  6     1 say  
##  7     1 about
##  8     1 this 
##  9     1 movie
## 10     1 it   
## # ... with 467,419 more rows
…
#dans le premier document
mots_1 %>%
  group_by(word) %>%
  count(sort=TRUE)

#comptage des termes par document
compte_A <- res_A %>%
  group_by(line,word) %>%
  summarize(freq=n())

## `summarise()` has grouped output by 'line'. You can override using the `.groups` argument.

print(compte_A)

## # A tibble: 281,109 x 3
## # Groups:   line [2,000]
##     line word     freq
##    <int> <chr>   <int>
##  1     1 a           4
##  2     1 about       1
##  3     1 all         2
##  4     1 and         1
##  5     1 at          1
##  6     1 awful       1
##  7     1 been        1
##  8     1 being       1
##  9     1 blubber     1
## 10     1 br          6
## # ... with 281,099 more rows

Dictionnaire global des termes

#dictionnaire - comptage
#ordonnancement selon la frquence
dico_A <- res_A %>%
  count(word,sort=TRUE)

#affichage
print(dico_A)

## # A tibble: 26,495 x 2
##    word      n
##    <chr> <int>
##  1 the   26766
##  2 and   12860
##  3 a     12706
##  4 of    11611
##  5 to    10527
##  6 is     8443
##  7 br     8258
##  8 in     7454
##  9 it     6289
## 10 i      6100
## # ... with 26,485 more rows
…
TidyText - Nettoyage des donnes

Stopwords (mots-vides)

Librairie pour les stopwords en anglais.

#rcupration des stopwords
data("stop_words")
print(stop_words)

## # A tibble: 1,149 x 2
##    word        lexicon
##    <chr>       <chr>  
##  1 a           SMART  
##  2 a's         SMART  
##  3 able        SMART  
##  4 about       SMART  
##  5 above       SMART  
##  6 according   SMART  
##  7 accordingly SMART  
##  8 across      SMART  
##  9 actually    SMART  
## 10 after       SMART  
## # ... with 1,139 more rows
…
Sans les chiffres, la balise saut de ligne et les stopwords.

#deuxime version, sans les chiffres et les br
res_B <- DPRIM %>%
  mutate(text=gsub(x=commentaires,pattern="[0-9]",replacement="")) %>%
  mutate(text=gsub(x=text,pattern="<br />",replacement="")) %>%
  unnest_tokens(output=word,input=text) %>%
  filter(!word %in% stop_words$word) %>%
  select(line,word)

#affichage
print(res_B)

## # A tibble: 172,664 x 2
##     line word     
##    <int> <chr>    
##  1     1 movie    
##  2     1 wonderful
##  3     1 tour     
##  4     1 de       
##  5     1 force    
##  6     1 peter    
##  7     1 sellers  
##  8     1 tragic   
##  9     1 misfires 
## 10     1 movie    
## # ... with 172,654 more rows
…
#par comparaison
DPRIM$commentaires[1]

## [1] "I don't have much to say about this movie. It could have been a wonderful tour-de-force for Peter Sellers, but it is one of the most tragic misfires in movie history. That it was Sellers final movie makes it all the more painful.<br /><br />The terrible screenplay, direction and shockingly wooden performances all come dreadfully together to make this one of the most unwatchably awful movies ever made.<br /><br />I wish so much that I could find even a snicker or a chuckle buried somewhere in this pile of putrid blubber, but it's a lifeless, humorless disaster. The truth hurts.<br /><br />Peter, why couldn't you have stopped at BEING THERE?"

Dictionnaire des termes

#dictionnaire
dico_B <- res_B %>%
  count(word,sort=TRUE)

print(dico_B)

## # A tibble: 27,759 x 2
##    word           n
##    <chr>      <int>
##  1 movie       3421
##  2 film        2991
##  3 time         912
##  4 story        906
##  5 people       747
##  6 bad          706
##  7 characters   560
##  8 movies       547
##  9 films        542
## 10 watch        526
## # ... with 27,749 more rows
…
#comptage des termes par document
compte_B <- res_B %>%
  group_by(line,word) %>%
  summarize(freq=n())

## `summarise()` has grouped output by 'line'. You can override using the `.groups` argument.

print(compte_B)

## # A tibble: 145,871 x 3
## # Groups:   line [2,000]
##     line word        freq
##    <int> <chr>      <int>
##  1     1 awful          1
##  2     1 blubber        1
##  3     1 buried         1
##  4     1 chuckle        1
##  5     1 de             1
##  6     1 direction      1
##  7     1 disaster       1
##  8     1 dreadfully     1
##  9     1 final          1
## 10     1 force          1
## # ... with 145,861 more rows
…
Analyse des sentiments (traditionnelle)

Sintresser aux polarits de termes pour infrer sur la polarit des documents.

Lexique des sentiments

#lexique pour l'analyse des sentiments
#polarit des termes - get_sentiments() de tidtytext
#"bing" est une source possible, il y en a d'autres
polarite_termes <- get_sentiments("bing")
print(polarite_termes)

## # A tibble: 6,786 x 2
##    word        sentiment
##    <chr>       <chr>    
##  1 2-faces     negative 
##  2 abnormal    negative 
##  3 abolish     negative 
##  4 abominable  negative 
##  5 abominably  negative 
##  6 abominate   negative 
##  7 abomination negative 
##  8 abort       negative 
##  9 aborted     negative 
## 10 aborts      negative 
## # ... with 6,776 more rows
…
## `summarise()` has grouped output by 'line'. You can override using the `.groups` argument.

#affichage
print(pol_per_doc)

## # A tibble: 1,916 x 2
## # Groups:   line [1,916]
##     line freq_pos
##    <int>    <dbl>
##  1     1    0.125
##  2     2    0.444
##  3     3    0.375
##  4     4    0.375
##  5     5    0.185
##  6     6    0.429
##  7     7    0.321
##  8     8    0.3  
##  9     9    0.231
## 10    10    0.1  
## # ... with 1,906 more rows
…
